<svg width="8" height="9" viewBox="0 0 8 9" fill="none" xmlns="http://www.w3.org/2000/svg">
<path d="M6.44015 3.69685C5.71702 3.69685 5.10236 4.20305 4.95773 4.87194H4.37923V4.02226C5.0662 3.89571 5.60855 3.26297 5.60855 2.52176C5.60855 1.67208 4.92157 0.985107 4.07189 0.985107C3.22221 0.985107 2.53524 1.67208 2.53524 2.52176C2.53524 3.28105 3.07759 3.89571 3.78264 4.02226V4.87194H3.20414C3.04143 4.20305 2.44485 3.69685 1.72171 3.69685C0.872034 3.69685 0.185059 4.38383 0.185059 5.23351C0.185059 6.08319 0.872034 6.77017 1.72171 6.77017C2.49908 6.77017 3.13182 6.19166 3.24029 5.45045H3.80072V6.86056C3.74648 7.14981 3.69225 7.36675 3.58378 7.52945C3.49339 7.69216 3.36684 7.83679 3.22221 7.92718C3.07759 8.01757 2.91488 8.0718 2.71602 8.10796C2.53524 8.12604 2.3183 8.14412 2.11944 8.14412V8.81301H3.80072H4.37923H6.06051V8.14412C5.84357 8.14412 5.64471 8.12604 5.46392 8.10796C5.28314 8.08988 5.10236 8.01757 4.95773 7.92718C4.81311 7.83679 4.68656 7.71024 4.59617 7.52945C4.50577 7.36675 4.43346 7.13173 4.37923 6.86056V6.84248V5.45045H4.93965C5.04812 6.19166 5.68086 6.77017 6.45823 6.77017C7.30791 6.77017 7.99489 6.08319 7.99489 5.23351C7.95873 4.38383 7.27175 3.69685 6.44015 3.69685Z" fill="white"/>
</svg>
