<svg width="8" height="8" viewBox="0 0 8 8" fill="none" xmlns="http://www.w3.org/2000/svg">
<path d="M6.40741 2.77136C5.66667 2.77136 5.03704 3.28868 4.88889 3.97229H4.2963V3.10393C5 2.9746 5.55556 2.32794 5.55556 1.57044C5.55556 0.702079 4.85185 0 3.98148 0C3.11111 0 2.40741 0.702079 2.40741 1.57044C2.40741 2.34642 2.96296 2.9746 3.68518 3.10393V3.97229H3.09259C2.92593 3.28868 2.31481 2.77136 1.57407 2.77136C0.703704 2.77136 0 3.47344 0 4.3418C0 5.21016 0.703704 5.91224 1.57407 5.91224C2.37037 5.91224 3.01852 5.32102 3.12963 4.56351H3.7037V6.00462C3.64815 6.30023 3.59259 6.52194 3.48148 6.68822C3.38889 6.8545 3.25926 7.00231 3.11111 7.09469C2.96296 7.18707 2.7963 7.2425 2.59259 7.27945C2.40741 7.29792 2.18519 7.3164 1.98148 7.3164V8H3.7037H4.2963H6.01852V7.3164C5.7963 7.3164 5.59259 7.29792 5.40741 7.27945C5.22222 7.26097 5.03704 7.18707 4.88889 7.09469C4.74074 7.00231 4.61111 6.87298 4.51852 6.68822C4.42593 6.52194 4.35185 6.28176 4.2963 6.00462V5.98614V4.56351H4.87037C4.98148 5.32102 5.62963 5.91224 6.42593 5.91224C7.2963 5.91224 8 5.21016 8 4.3418C7.96296 3.47344 7.25926 2.77136 6.40741 2.77136Z" fill="#676767"/>
</svg>
