<svg width="11" height="11" viewBox="0 0 11 11" fill="none" xmlns="http://www.w3.org/2000/svg">
<path d="M8.10652 0C6.93478 0 5.95435 0.693478 5.5 1.67391C5.04565 0.693478 4.0413 0 2.89348 0C1.2913 0 0 1.2913 0 2.89348C0 4.44783 1.81739 6.00217 2.79783 7.00652C3.63478 7.84348 5.5 9.49348 5.5 10.187C5.5 9.46957 7.36522 7.84348 8.17826 7.00652C9.18261 5.97826 11 4.42391 11 2.89348C11 1.2913 9.7087 0 8.10652 0Z" fill="#676767"/>
</svg>
