<svg width="9" height="8" viewBox="0 0 9 8" fill="none" xmlns="http://www.w3.org/2000/svg">
<path d="M6.06724 0.691895C5.23917 0.691895 4.5463 1.18197 4.22521 1.87484C3.90413 1.18197 3.19436 0.691895 2.38319 0.691895C1.25094 0.691895 0.338379 1.60446 0.338379 2.73671C0.338379 3.83516 1.62272 4.93361 2.3156 5.64338C2.90707 6.23486 4.22521 7.40091 4.22521 7.89099C4.22521 7.38401 5.54336 6.23486 6.11793 5.64338C6.8277 4.91672 8.11205 3.81826 8.11205 2.73671C8.11205 1.60446 7.19949 0.691895 6.06724 0.691895Z" fill="white"/>
</svg>
