<svg width="45" height="45" viewBox="0 0 45 45" fill="none" xmlns="http://www.w3.org/2000/svg">
<circle cx="25.5" cy="21.5" r="0.5" fill="#6D6D6D"/>
<circle cx="22.5" cy="21.5" r="0.5" fill="#6D6D6D"/>
<circle cx="19.5" cy="21.5" r="0.5" fill="#6D6D6D"/>
<path fill-rule="evenodd" clip-rule="evenodd" d="M27.5 17C27.5 16.1716 28.1716 15.5 29 15.5C29.8284 15.5 30.5 16.1716 30.5 17C30.5 17.8284 29.8284 18.5 29 18.5C28.1716 18.5 27.5 17.8284 27.5 17Z" fill="#DBFF00"/>
<path fill-rule="evenodd" clip-rule="evenodd" d="M26.708 16C26.5742 16.3062 26.5 16.6444 26.5 17L16 17V28.3163L18.0045 26H29V19.5C29.3556 19.5 29.6938 19.4258 30 19.292V26C30 26.5523 29.5523 27 29 27H18.4615L15 31V17C15 16.4477 15.4477 16 16 16H26.708Z" fill="#6D6D6D"/>
</svg>
