<svg width="45" height="45" viewBox="0 0 45 45" fill="none" xmlns="http://www.w3.org/2000/svg">
<path d="M20.7315 16H24.2685V18.7617C24.4702 18.8577 24.6629 18.9697 24.8449 19.0959L27.2315 17.7147L29 20.7852L26.6133 22.1665C26.622 22.2765 26.6265 22.3877 26.6265 22.5C26.6265 22.6123 26.622 22.7235 26.6133 22.8335L29 24.2147L27.2315 27.2852L24.845 25.904C24.6629 26.0303 24.4702 26.1423 24.2685 26.2383V29H20.7315V26.2383C20.5298 26.1423 20.3371 26.0303 20.155 25.904L17.7685 27.2852L16 24.2147L18.3867 22.8335C18.378 22.7235 18.3735 22.6123 18.3735 22.5C18.3735 22.3877 18.378 22.2764 18.3867 22.1664L16 20.7851L17.7685 17.7147L20.1551 19.0959C20.3372 18.9697 20.5299 18.8577 20.7315 18.7617V16Z" stroke="#6D6D6D"/>
<circle cx="22.5" cy="22.5" r="0.5" stroke="#6D6D6D"/>
</svg>
