<svg width="6" height="9" viewBox="0 0 6 9" fill="none" xmlns="http://www.w3.org/2000/svg">
<path d="M5.02734 0.485718L1.14301 4.37005L5.02734 8.25439" stroke="#353535" stroke-width="0.980363"/>
</svg>
