<svg xmlns="http://www.w3.org/2000/svg" xmlns:xlink="http://www.w3.org/1999/xlink" version="1.1" width="1000" height="1000" viewBox="0 0 1000 1000" xml:space="preserve">
<desc>Created with Fabric.js 3.5.0</desc>
<defs>
</defs>
<rect x="0" y="0" width="100%" height="100%" fill="#ffffff"/>
<g transform="matrix(1 0 0 1 500 500)" id="718867">
<rect style="stroke: none; stroke-width: 1; stroke-dasharray: none; stroke-linecap: butt; stroke-dashoffset: 0; stroke-linejoin: miter; stroke-miterlimit: 4; is-custom-font: none; font-file-url: none; fill: rgb(0,132,196); fill-rule: nonzero; opacity: 1;" vector-effect="non-scaling-stroke" x="-180" y="-12.5" rx="12.5" ry="12.5" width="360" height="25"/>
</g>
<g transform="matrix(1 0 0 1 675 510)" id="990859">
<path style="stroke: none; stroke-width: 1; stroke-dasharray: none; stroke-linecap: butt; stroke-dashoffset: 0; stroke-linejoin: miter; stroke-miterlimit: 4; is-custom-font: none; font-file-url: none; fill: rgb(0,132,196); fill-rule: nonzero; opacity: 1;" vector-effect="non-scaling-stroke" transform=" translate(-5, -5.5)" d="M 0 0.000204126 L 6.84211 0 C 4.73684 6.72222 10 11 10 11 C 1.57895 11 0 6.72222 0 0.000204126 Z" stroke-linecap="round"/>
</g>
</svg>